1. Summary
Meeting title	LEX Workshop
Attended participants	8
Start time	5/26/22, 9:56:56 AM
End time	5/26/22, 11:25:33 AM
Meeting duration	1h 28m 37s
Average attendance time	1h 24m 25s

2. Participants
Name	First join	Last leave	In-meeting duration	Email	Participant ID (UPN)	Role
Leonardo Villalba Ferrer	5/26/22, 9:57:01 AM	5/26/22, 11:25:33 AM	1h 28m 32s	Leonardo.Villalba@jala-foundation.org	Leonardo.Villalba@jala-foundation.org	Presenter
Maria Marquina Guevara	5/26/22, 9:59:35 AM	5/26/22, 11:25:26 AM	1h 25m 51s	Maria.Marquina@fundacion-jala.org	Maria.Marquina@fundacion-jala.org	Organizer
Cesar Illanes Argote	5/26/22, 10:00:29 AM	5/26/22, 11:25:27 AM	1h 24m 58s	Cesar.Illanes@jala-foundation.org	Cesar.Illanes@jala-foundation.org	Presenter
Luis Becerra Vazquez	5/26/22, 10:00:33 AM	5/26/22, 11:25:30 AM	1h 24m 57s	Luis.Becerra@jala-foundation.org	Luis.Becerra@jala-foundation.org	Presenter
Martin Gonzalez Torrilla	5/26/22, 10:00:43 AM	5/26/22, 11:25:27 AM	1h 24m 44s	Martin.Gonzalez@jala-foundation.org	Martin.Gonzalez@jala-foundation.org	Presenter
Kevin Cardenas Rodriguez	5/26/22, 10:00:48 AM	5/26/22, 11:25:28 AM	1h 24m 40s	Kevin.Cardenas@jala-foundation.org	Kevin.Cardenas@jala-foundation.org	Presenter
Joaquin Aman Alvarez	5/26/22, 10:00:54 AM	5/26/22, 11:25:29 AM	1h 17m 27s	Joaquin.Aman@jala-foundation.org	Joaquin.Aman@jala-foundation.org	Presenter
Martin Pavesio Sabini	5/26/22, 10:01:21 AM	5/26/22, 11:25:33 AM	1h 24m 11s	Martin.Pavesio@jala-foundation.org	Martin.Pavesio@jala-foundation.org	Presenter

3. In-Meeting activities
Name	Join time	Leave time	Duration	Email	Role
Leonardo Villalba Ferrer	5/26/22, 9:57:01 AM	5/26/22, 11:25:33 AM	1h 28m 32s	Leonardo.Villalba@jala-foundation.org	Presenter
Maria Marquina Guevara	5/26/22, 9:59:35 AM	5/26/22, 11:25:26 AM	1h 25m 51s	Maria.Marquina@fundacion-jala.org	Organizer
Cesar Illanes Argote	5/26/22, 10:00:29 AM	5/26/22, 11:25:27 AM	1h 24m 58s	Cesar.Illanes@jala-foundation.org	Presenter
Luis Becerra Vazquez	5/26/22, 10:00:33 AM	5/26/22, 11:25:30 AM	1h 24m 57s	Luis.Becerra@jala-foundation.org	Presenter
Martin Gonzalez Torrilla	5/26/22, 10:00:43 AM	5/26/22, 11:25:27 AM	1h 24m 44s	Martin.Gonzalez@jala-foundation.org	Presenter
Kevin Cardenas Rodriguez	5/26/22, 10:00:48 AM	5/26/22, 11:25:28 AM	1h 24m 40s	Kevin.Cardenas@jala-foundation.org	Presenter
Joaquin Aman Alvarez	5/26/22, 10:00:54 AM	5/26/22, 11:09:46 AM	1h 8m 51s	Joaquin.Aman@jala-foundation.org	Presenter
Joaquin Aman Alvarez	5/26/22, 11:16:53 AM	5/26/22, 11:25:29 AM	8m 36s	Joaquin.Aman@jala-foundation.org	Presenter
Martin Pavesio Sabini	5/26/22, 10:01:21 AM	5/26/22, 11:25:33 AM	1h 24m 11s	Martin.Pavesio@jala-foundation.org	Presenter
