1. Summary
Meeting title	Python training
Attended participants	9
Start time	9/12/22, 8:27:56 AM
End time	9/12/22, 9:55:37 AM
Meeting duration	1h 27m 42s
Average attendance time	1h 25m 3s

2. Participants
Name	First join	Last leave	In-meeting duration	Email	Participant ID (UPN)	Role
Diego Jauregui Salvatierra	9/12/22, 8:28:01 AM	9/12/22, 9:55:33 AM	1h 27m 32s	Diego.Jauregui@jala.university	Diego.Jauregui@jala.university	Presenter
Maria Marquina Guevara	9/12/22, 8:29:29 AM	9/12/22, 9:55:32 AM	1h 26m 3s	Maria.Marquina@jala.university	Maria.Marquina@jala.university	Organizer
Sergio Mallea Morales	9/12/22, 8:30:28 AM	9/12/22, 9:55:35 AM	1h 25m 6s	Sergio.Mallea@jala.university	Sergio.Mallea@jala.university	Presenter
Andres Galvis Bolivar	9/12/22, 8:30:29 AM	9/12/22, 9:55:33 AM	1h 25m 3s	Andres.Galvis@jala.university	Andres.Galvis@jala.university	Presenter
Adrian Clavijo Lopez	9/12/22, 8:30:43 AM	9/12/22, 9:55:37 AM	1h 24m 54s	Adrian.Clavijo@jala.university	Adrian.Clavijo@jala.university	Presenter
Camilo Villalba Sanz	9/12/22, 8:30:48 AM	9/12/22, 9:55:36 AM	1h 24m 47s	Camilo.Villalba@jala.university	Camilo.Villalba@jala.university	Presenter
Martin Ferreyra	9/12/22, 8:31:03 AM	9/12/22, 9:55:36 AM	1h 24m 33s	Martin.Ferreyra@jala.university	Martin.Ferreyra@jala.university	Presenter
Jesus Vallecilla Solano	9/12/22, 8:31:07 AM	9/12/22, 9:55:32 AM	1h 24m 25s	Jesus.Vallecilla@jala.university	Jesus.Vallecilla@jala.university	Presenter
Jason Pineda Serna	9/12/22, 8:32:24 AM	9/12/22, 9:55:33 AM	1h 23m 8s	Jason.Pineda@jala.university	Jason.Pineda@jala.university	Presenter

3. In-Meeting activities
Name	Join time	Leave time	Duration	Email	Role
Diego Jauregui Salvatierra	9/12/22, 8:28:01 AM	9/12/22, 9:55:33 AM	1h 27m 32s	Diego.Jauregui@jala.university	Presenter
Maria Marquina Guevara	9/12/22, 8:29:29 AM	9/12/22, 9:55:32 AM	1h 26m 3s	Maria.Marquina@jala.university	Organizer
Sergio Mallea Morales	9/12/22, 8:30:28 AM	9/12/22, 9:55:35 AM	1h 25m 6s	Sergio.Mallea@jala.university	Presenter
Andres Galvis Bolivar	9/12/22, 8:30:29 AM	9/12/22, 9:55:33 AM	1h 25m 3s	Andres.Galvis@jala.university	Presenter
Adrian Clavijo Lopez	9/12/22, 8:30:43 AM	9/12/22, 9:55:37 AM	1h 24m 54s	Adrian.Clavijo@jala.university	Presenter
Camilo Villalba Sanz	9/12/22, 8:30:48 AM	9/12/22, 9:55:36 AM	1h 24m 47s	Camilo.Villalba@jala.university	Presenter
Martin Ferreyra	9/12/22, 8:31:03 AM	9/12/22, 9:55:36 AM	1h 24m 33s	Martin.Ferreyra@jala.university	Presenter
Jesus Vallecilla Solano	9/12/22, 8:31:07 AM	9/12/22, 9:55:32 AM	1h 24m 25s	Jesus.Vallecilla@jala.university	Presenter
Jason Pineda Serna	9/12/22, 8:32:24 AM	9/12/22, 9:55:33 AM	1h 23m 8s	Jason.Pineda@jala.university	Presenter
